Biostat M280 Homework 3
…
TOYT received most citations.

How many different colors of cars were ticketed? Which color attracted most tickets?

LA_sql %>% group_by(Color) %>% summarise(n = n()) %>% arrange(desc(n)) %>%
  filter(is.na(Color) == F) %>% collect()

## # A tibble: 103 x 2
##    Color       n
##    <chr>   <int>
##  1 BK    1652621
##  2 WT    1603566
##  3 GY    1497021
##  4 SL     953903
##  5 BL     591858
##  6 RD     378515
##  7 GN     213197
##  8 BN     148980
##  9 GO      97961
## 10 MR      91279
## #  with 93 more rows
…
